<svg width="48" height="49" viewBox="0 0 48 49" fill="none" xmlns="http://www.w3.org/2000/svg">
<path d="M9.54181 4.79733C12.589 2.60211 15.9387 1.12014 19.6409 0.41245C28.9796 -1.37758 38.8594 2.76585 44.0464 10.7641C46.3914 14.3775 47.8179 18.3294 47.9955 22.681C48.0871 24.965 46.7689 26.372 44.4682 26.3887C41.9316 26.4081 39.3923 26.4109 36.8529 26.422C36.0426 26.4081 35.2294 26.4081 34.4191 26.3776C32.8788 26.3193 31.6743 25.3008 31.3524 23.7966C31.2359 23.2527 31.1803 22.6921 31.0388 22.1537C30.1091 18.6846 27.0452 16.5449 23.3653 16.7753C20.0072 16.9862 17.182 19.6726 16.7907 23.1916C16.5854 25.0205 15.145 26.4608 13.1746 26.4109C9.9803 26.3276 6.78045 26.397 3.58337 26.3859C1.21609 26.3776 -0.140999 24.9483 0.0116395 22.57C0.180929 19.9307 0.758179 17.383 1.72951 14.9131C3.35858 10.7807 6.12827 7.54481 9.54181 4.79733ZM18.8194 12.8622C19.0331 12.7845 19.2496 12.7123 19.4605 12.6291C22.1802 11.5523 24.9527 11.3941 27.7252 12.3404C31.8547 13.7502 34.5634 16.5699 35.8067 20.7688C35.9121 21.1296 36.0065 21.3822 36.4949 21.3738C38.4237 21.3405 40.3525 21.3489 42.2841 21.3683C42.7475 21.3738 42.8336 21.2184 42.7531 20.7855C42.3784 18.7485 41.754 16.7975 40.7327 14.9963C37.3858 9.09617 32.3237 5.74923 25.5744 5.11648C21.5558 4.73905 17.7537 5.59937 14.2875 7.73908C9.31147 10.7807 6.26148 15.1351 5.26239 20.9076C5.16803 21.4543 5.48164 21.3544 5.77026 21.3572C7.62134 21.36 9.47243 21.3405 11.3235 21.3711C11.8758 21.3794 12.1172 21.2267 12.2504 20.6661C12.6473 19.0038 13.3994 17.4885 14.5289 16.2036C15.7417 14.8243 17.1848 13.7114 18.8194 12.8622Z" fill="white"/>
<path d="M41.4626 31.4757C42.3396 29.9715 43.1805 29.5025 44.4349 29.8189C46.0112 30.2157 46.8216 31.7143 46.2083 33.2213C45.8197 34.1788 45.323 35.0918 44.8734 36.0243C43.6495 37.9919 42.2758 39.8402 40.5773 41.4305C37.5662 44.2473 34.0944 46.2233 30.0869 47.2585C25.283 48.5018 20.5373 48.3158 15.886 46.6257C9.3864 44.264 4.78228 39.8347 1.93766 33.546C1.32433 32.1889 1.58798 30.6153 3.07273 29.9854C4.46313 29.3942 5.82299 29.9687 6.53623 31.5118C9.57234 38.0974 14.6705 42.0105 21.8666 42.8847C27.6086 43.584 32.7012 41.8717 36.9723 37.9031C38.9288 36.0881 40.4941 33.99 41.4626 31.4757Z" fill="white"/>
</svg>
